<?xml version="1.0" encoding="utf-8"?>
<!-- Generator: Adobe Illustrator 21.1.0, SVG Export Plug-In . SVG Version: 6.00 Build 0)  -->
<svg version="1.1" id="Layer_1" xmlns="http://www.w3.org/2000/svg" xmlns:xlink="http://www.w3.org/1999/xlink" x="0px" y="0px"
	 viewBox="0 0 443.5 122.1" style="enable-background:new 0 0 443.5 122.1;" xml:space="preserve">
<style type="text/css">
	.st0{fill:#B7B8BE;}
</style>
<g>
	<path class="st0" d="M52.6,83L18.4,28.4V83H0V0h22.5l31.1,50.5V0h18.5v83H52.6z"/>
	<path class="st0" d="M195.8,24.8l11.4,34.5l9.7-34.5h17.4l-18,58.2h-17.7l-12.6-37.6L173.5,83h-18l-18.3-58.2h18.5l9.7,34.4
		l11.5-34.4H195.8z"/>
	<path class="st0" d="M294.3,83V0h17.4v30.3c2.5-3.6,8.9-6.9,16.9-6.9c16.9,0,27,12.9,27,30.3c0,17.8-11.5,30.6-27.7,30.6
		c-7.7,0-13.7-3.4-16.4-7.8V83H294.3z M324.8,39.5c-6.9,0-13.2,4.6-13.2,14.4c0,9.6,6.3,14.5,13.2,14.5c6.9,0,13.1-4.8,13.1-14.5
		C337.9,44,331.7,39.5,324.8,39.5z"/>
	<path class="st0" d="M361.9,83V42V0h17.8v42.1V83H361.9z"/>
	<path class="st0" d="M427.1,63.1c-1.8,4-5.3,6.5-11.2,6.5c-6.9,0-12.9-4.7-13.2-11.2h40.5c0.1-0.4,0.4-3,0.4-5.5
		c0-18.7-11.1-29.9-29.2-29.9c-15.1,0-29,11.9-29,30.7c0,19.6,14.3,31,30.3,31c13.4,0,22.3-7,25.9-15.8L427.1,63.1z M414.6,37.1
		c8.4,0,11.5,5.4,11.7,9.8H403C403.3,42.6,407.1,37.1,414.6,37.1z"/>
	<path class="st0" d="M120.6,63.1c-1.8,4-5.3,6.5-11.2,6.5c-6.9,0-12.9-4.7-13.2-11.2h40.5c0.1-0.4,0.4-3,0.4-5.5
		c0-18.7-11.1-29.9-29.2-29.9c-15.1,0-29,11.9-29,30.7c0,19.6,14.3,31,30.3,31c13.4,0,22.3-7,25.9-15.8L120.6,63.1z M108.1,37.1
		c8.4,0,11.5,5.4,11.7,9.8H96.5C96.8,42.6,100.6,37.1,108.1,37.1z"/>
	<path class="st0" d="M261.5,23.1c-17.1,0-24.8,11-25.5,19.3l15.5,3.2c0.4-4.3,3.7-8.5,10-8.5c5.6,0,8.5,2.9,8.5,6.3
		c0,2-1.1,3.5-4.2,4L252,49.4c-9.6,1.4-17.2,7.3-17.2,17.6c0,9.2,7.4,17.7,20.1,17.7c7.7,0,13.3-3.3,16.4-8.2V83h15.9V45.5
		C287.3,33.6,280.4,23.1,261.5,23.1z M269.9,60.2c0,9-5.4,11.6-10.7,11.6c-4.9,0-6.9-2.9-6.9-6c0-4.1,2.8-5.9,6.6-6.4l11-1.8V60.2z"
		/>
</g>
<polygon class="st0" points="0,95.4 0,113.2 0,122.1 443.5,122.1 443.5,113.2 443.5,95.4 "/>
</svg>
